%YAML 1.1
%TAG !u! tag:unity3d.com,2011:
--- !u!1 &2850488812768217135
GameObject:
  m_ObjectHideFlags: 0
  m_CorrespondingSourceObject: {fileID: 0}
  m_PrefabInstance: {fileID: 0}
  m_PrefabAsset: {fileID: 0}
  serializedVersion: 6
  m_Component:
  - component: {fileID: 7602204019692531722}
  - component: {fileID: 6844161743235799568}
  m_Layer: 15
  m_Name: Static Route
  m_TagString: Untagged
  m_Icon: {fileID: 0}
  m_NavMeshLayer: 0
  m_StaticEditorFlags: 0
  m_IsActive: 0
--- !u!4 &7602204019692531722
Transform:
  m_ObjectHideFlags: 0
  m_CorrespondingSourceObject: {fileID: 0}
  m_PrefabInstance: {fileID: 0}
  m_PrefabAsset: {fileID: 0}
  m_GameObject: {fileID: 2850488812768217135}
  m_LocalRotation: {x: 0, y: 0, z: 0, w: 1}
  m_LocalPosition: {x: 0, y: 0, z: 0}
  m_LocalScale: {x: 1, y: 1, z: 1}
  m_Children: []
  m_Father: {fileID: 0}
  m_RootOrder: 0
  m_LocalEulerAnglesHint: {x: 0, y: 0, z: 0}
--- !u!114 &6844161743235799568
MonoBehaviour:
  m_ObjectHideFlags: 0
  m_CorrespondingSourceObject: {fileID: 0}
  m_PrefabInstance: {fileID: 0}
  m_PrefabAsset: {fileID: 0}
  m_GameObject: {fileID: 2850488812768217135}
  m_Enabled: 1
  m_EditorHideFlags: 0
  m_Script: {fileID: 11500000, guid: 28b6d34547837b04c8da541fb3eb91e3, type: 3}
  m_Name: 
  m_EditorClassIdentifier: 
  debugFlags: 31
  prefab: {fileID: 8808777193878854501, guid: 07319a14c3581d04ab4afd16bacbfdf3, type: 3}
  getActivatesObject: 1
  returnDeactivatesObject: 1
  getReparentsObject: 0
  returnReparentsObject: 0
  targetParent: {fileID: 0}
  returnResetsPosition: 1
  returnResetsRotation: 1
  returnResetsScale: 1
  limitless: 1
  size: 12
  _totalCount: 0
  level: 0
  _unused: []
  _used: []
  name: 
  description: 
  featureID: 
  isLooped: 0
  customRouteToThis: {fileID: 0}
  pathToNearestEnd: []
